Library/Bee/artifacts/mvdfrm/Unity.Services.Core.Internal.ref.dll_BF666932C0B27755.mvfrm
Library/Bee/artifacts/mvdfrm/Unity.Services.Core.ref.dll_FF91F9BC6398EB7C.mvfrm
Library/Bee/artifacts/mvdfrm/UnityEngine.UI.ref.dll_AFC2E85BC2EDBC0B.mvfrm
Library/Bee/artifacts/mvdfrm/UnityEngine.AIModule.dll_0C892487CED6DDE7.mvfrm
Library/Bee/artifacts/mvdfrm/UnityEngine.ARModule.dll_C5FBE98B2BF43CB0.mvfrm
Library/Bee/artifacts/mvdfrm/UnityEngine.AccessibilityModule.dll_58CF7842C5AF8923.mvfrm
Library/Bee/artifacts/mvdfrm/UnityEngine.AndroidJNIModule.dll_6DFAE67E26959725.mvfrm
Library/Bee/artifacts/mvdfrm/UnityEngine.AnimationModule.dll_1FE18C5859E4E709.mvfrm
Library/Bee/artifacts/mvdfrm/UnityEngine.AssetBundleModule.dll_C4D8FA29F1AB2957.mvfrm
Library/Bee/artifacts/mvdfrm/UnityEngine.AudioModule.dll_A6A4E1DC54E3DDBB.mvfrm
Library/Bee/artifacts/mvdfrm/UnityEngine.ClothModule.dll_0D8D3ED72F00BC9F.mvfrm
Library/Bee/artifacts/mvdfrm/UnityEngine.CoreModule.dll_5FA704E735D37B1E.mvfrm
Library/Bee/artifacts/mvdfrm/UnityEngine.CrashReportingModule.dll_25934554F97F2D76.mvfrm
Library/Bee/artifacts/mvdfrm/UnityEngine.DSPGraphModule.dll_7C197236D3F171DC.mvfrm
Library/Bee/artifacts/mvdfrm/UnityEngine.DirectorModule.dll_76C810CD6190A0BB.mvfrm
Library/Bee/artifacts/mvdfrm/UnityEngine.GIModule.dll_A4C56D956A85C601.mvfrm
Library/Bee/artifacts/mvdfrm/UnityEngine.GameCenterModule.dll_98483098ECD68816.mvfrm
Library/Bee/artifacts/mvdfrm/UnityEngine.GridModule.dll_3D1820D54E281115.mvfrm
Library/Bee/artifacts/mvdfrm/UnityEngine.HotReloadModule.dll_A12A4A5E3518028B.mvfrm
Library/Bee/artifacts/mvdfrm/UnityEngine.IMGUIModule.dll_DF0481431B15719C.mvfrm
Library/Bee/artifacts/mvdfrm/UnityEngine.ImageConversionModule.dll_70E6C5B236B58AB6.mvfrm
Library/Bee/artifacts/mvdfrm/UnityEngine.InputLegacyModule.dll_561E1548899CDF48.mvfrm
Library/Bee/artifacts/mvdfrm/UnityEngine.InputModule.dll_0D1AA98CCB1C025F.mvfrm
Library/Bee/artifacts/mvdfrm/UnityEngine.JSONSerializeModule.dll_B8E7017EC4EAE9AD.mvfrm
Library/Bee/artifacts/mvdfrm/UnityEngine.LocalizationModule.dll_8D16746707637DE8.mvfrm
Library/Bee/artifacts/mvdfrm/UnityEngine.ParticleSystemModule.dll_78A58EA16790B904.mvfrm
Library/Bee/artifacts/mvdfrm/UnityEngine.PerformanceReportingModule.dll_4929DD306411ADDD.mvfrm
Library/Bee/artifacts/mvdfrm/UnityEngine.Physics2DModule.dll_6C877C48FAE1DE9E.mvfrm
Library/Bee/artifacts/mvdfrm/UnityEngine.PhysicsModule.dll_6C784CFC6D355DEC.mvfrm
Library/Bee/artifacts/mvdfrm/UnityEngine.ProfilerModule.dll_A90E4A03FAEA27C8.mvfrm
Library/Bee/artifacts/mvdfrm/UnityEngine.RuntimeInitializeOnLoadManagerInitializerModule.dll_36FDA61061298B67.mvfrm
Library/Bee/artifacts/mvdfrm/UnityEngine.ScreenCaptureModule.dll_D2CEAF03D957160F.mvfrm
Library/Bee/artifacts/mvdfrm/UnityEngine.SharedInternalsModule.dll_F4F80487ADE38606.mvfrm
Library/Bee/artifacts/mvdfrm/UnityEngine.SpriteMaskModule.dll_8174A3290E461D90.mvfrm
Library/Bee/artifacts/mvdfrm/UnityEngine.SpriteShapeModule.dll_DE3A2784A74D6161.mvfrm
Library/Bee/artifacts/mvdfrm/UnityEngine.StreamingModule.dll_D47679A8A96C9E47.mvfrm
Library/Bee/artifacts/mvdfrm/UnityEngine.SubstanceModule.dll_B1218DF1F4BF9C55.mvfrm
Library/Bee/artifacts/mvdfrm/UnityEngine.SubsystemsModule.dll_EC22098ADC8E05A3.mvfrm
Library/Bee/artifacts/mvdfrm/UnityEngine.TLSModule.dll_298E0CD0BE7453C0.mvfrm
Library/Bee/artifacts/mvdfrm/UnityEngine.TerrainModule.dll_86BEC86B42F3A6DA.mvfrm
Library/Bee/artifacts/mvdfrm/UnityEngine.TerrainPhysicsModule.dll_7920377480D3B391.mvfrm
Library/Bee/artifacts/mvdfrm/UnityEngine.TextCoreFontEngineModule.dll_47DB76AB601372DC.mvfrm
Library/Bee/artifacts/mvdfrm/UnityEngine.TextCoreTextEngineModule.dll_8FC3AD1CEF972BFA.mvfrm
Library/Bee/artifacts/mvdfrm/UnityEngine.TextRenderingModule.dll_FC0E210E908E9604.mvfrm
Library/Bee/artifacts/mvdfrm/UnityEngine.TilemapModule.dll_25BB2FEC5AB087E3.mvfrm
Library/Bee/artifacts/mvdfrm/UnityEngine.UIElementsModule.dll_F0606AF2DFBA419A.mvfrm
Library/Bee/artifacts/mvdfrm/UnityEngine.UIElementsNativeModule.dll_17DDB1AFAB37EBB1.mvfrm
Library/Bee/artifacts/mvdfrm/UnityEngine.UIModule.dll_07FCC2B52B1DE393.mvfrm
Library/Bee/artifacts/mvdfrm/UnityEngine.UNETModule.dll_F24D4CD082E27097.mvfrm
Library/Bee/artifacts/mvdfrm/UnityEngine.UmbraModule.dll_21798DF4E20A892E.mvfrm
Library/Bee/artifacts/mvdfrm/UnityEngine.UnityAnalyticsModule.dll_9844FF6B13B80B00.mvfrm
Library/Bee/artifacts/mvdfrm/UnityEngine.UnityConnectModule.dll_BC8CB90DB8E7B8D4.mvfrm
Library/Bee/artifacts/mvdfrm/UnityEngine.UnityCurlModule.dll_52FE2D89C9F8D8F6.mvfrm
Library/Bee/artifacts/mvdfrm/UnityEngine.UnityTestProtocolModule.dll_C1977C0B58836864.mvfrm
Library/Bee/artifacts/mvdfrm/UnityEngine.UnityWebRequestAssetBundleModule.dll_031DBB54F6B26DD1.mvfrm
Library/Bee/artifacts/mvdfrm/UnityEngine.UnityWebRequestAudioModule.dll_C126310EEA7C7875.mvfrm
Library/Bee/artifacts/mvdfrm/UnityEngine.UnityWebRequestModule.dll_8285CD5C41AA2535.mvfrm
Library/Bee/artifacts/mvdfrm/UnityEngine.UnityWebRequestTextureModule.dll_886878989D22DEEA.mvfrm
Library/Bee/artifacts/mvdfrm/UnityEngine.UnityWebRequestWWWModule.dll_5A85F278DF56E866.mvfrm
Library/Bee/artifacts/mvdfrm/UnityEngine.VFXModule.dll_AA6CA53F94E1BD2D.mvfrm
Library/Bee/artifacts/mvdfrm/UnityEngine.VRModule.dll_5ACEE93ACCD8690B.mvfrm
Library/Bee/artifacts/mvdfrm/UnityEngine.VehiclesModule.dll_EE8B0A4CDBBA7056.mvfrm
Library/Bee/artifacts/mvdfrm/UnityEngine.VideoModule.dll_CBAE66471775F960.mvfrm
Library/Bee/artifacts/mvdfrm/UnityEngine.WindModule.dll_D5F5E00FC709F987.mvfrm
Library/Bee/artifacts/mvdfrm/UnityEngine.XRModule.dll_8D8DAC3F5612B669.mvfrm
Library/Bee/artifacts/mvdfrm/UnityEngine.dll_6FC4EB22335F0417.mvfrm
Library/Bee/artifacts/mvdfrm/Unity.VisualScripting.Antlr3.Runtime.dll_62B46C9765A69759.mvfrm