Library/Bee/artifacts/mvdfrm/Unity.Services.Core.Internal.ref.dll_AF4CB5E2931CD800.mvfrm
Library/Bee/artifacts/mvdfrm/Unity.Services.Core.ref.dll_B122F1A1160C9981.mvfrm
Library/Bee/artifacts/mvdfrm/UnityEditor.UI.ref.dll_452FB8EBD860BCAB.mvfrm
Library/Bee/artifacts/mvdfrm/UnityEngine.UI.ref.dll_01958F46DE82E516.mvfrm
Library/Bee/artifacts/mvdfrm/UnityEditor.Graphs.dll_352FF1A929E49F88.mvfrm
Library/Bee/artifacts/mvdfrm/UnityEditor.CoreModule.dll_02230E045148EB56.mvfrm
Library/Bee/artifacts/mvdfrm/UnityEditor.DeviceSimulatorModule.dll_9A495817C6455C4B.mvfrm
Library/Bee/artifacts/mvdfrm/UnityEditor.DiagnosticsModule.dll_1AA6FB2BF64103D9.mvfrm
Library/Bee/artifacts/mvdfrm/UnityEditor.GraphViewModule.dll_816CFD888CE6A690.mvfrm
Library/Bee/artifacts/mvdfrm/UnityEditor.PackageManagerUIModule.dll_2E12485BD3A9A932.mvfrm
Library/Bee/artifacts/mvdfrm/UnityEditor.QuickSearchModule.dll_A5B67C394F180032.mvfrm
Library/Bee/artifacts/mvdfrm/UnityEditor.SceneTemplateModule.dll_FF7B999C26C318F3.mvfrm
Library/Bee/artifacts/mvdfrm/UnityEditor.TextCoreFontEngineModule.dll_02D83C2451504414.mvfrm
Library/Bee/artifacts/mvdfrm/UnityEditor.TextCoreTextEngineModule.dll_4AC07295E0D3FD32.mvfrm
Library/Bee/artifacts/mvdfrm/UnityEditor.UIBuilderModule.dll_D5F5AAA4FF9F1FC4.mvfrm
Library/Bee/artifacts/mvdfrm/UnityEditor.UIElementsModule.dll_4CAD5A4C1E5476D2.mvfrm
Library/Bee/artifacts/mvdfrm/UnityEditor.UIElementsSamplesModule.dll_AB807D68B3CBBDBB.mvfrm
Library/Bee/artifacts/mvdfrm/UnityEditor.UIServiceModule.dll_0EE7BC07E8D66FDE.mvfrm
Library/Bee/artifacts/mvdfrm/UnityEditor.UnityConnectModule.dll_839205E7319D450C.mvfrm
Library/Bee/artifacts/mvdfrm/UnityEditor.dll_AAFC75804C219E5F.mvfrm
Library/Bee/artifacts/mvdfrm/UnityEngine.AIModule.dll_9AD9473BB499AAEA.mvfrm
Library/Bee/artifacts/mvdfrm/UnityEngine.AccessibilityModule.dll_3221053327394090.mvfrm
Library/Bee/artifacts/mvdfrm/UnityEngine.AndroidJNIModule.dll_CAF6431F6773E5A8.mvfrm
Library/Bee/artifacts/mvdfrm/UnityEngine.AnimationModule.dll_4FF279B167437B36.mvfrm
Library/Bee/artifacts/mvdfrm/UnityEngine.AssetBundleModule.dll_E99FAF2AB17EB524.mvfrm
Library/Bee/artifacts/mvdfrm/UnityEngine.AudioModule.dll_09F1F0E895721EA8.mvfrm
Library/Bee/artifacts/mvdfrm/UnityEngine.ClothModule.dll_70DA4DE36F8EFD8C.mvfrm
Library/Bee/artifacts/mvdfrm/UnityEngine.ClusterInputModule.dll_032E7AFCE32517D2.mvfrm
Library/Bee/artifacts/mvdfrm/UnityEngine.ClusterRendererModule.dll_9FF61A89360069CF.mvfrm
Library/Bee/artifacts/mvdfrm/UnityEngine.CoreModule.dll_2543E156F94E5681.mvfrm
Library/Bee/artifacts/mvdfrm/UnityEngine.CrashReportingModule.dll_FB1E5C5A721D84B9.mvfrm
Library/Bee/artifacts/mvdfrm/UnityEngine.DSPGraphModule.dll_01200D48AAB88DFF.mvfrm
Library/Bee/artifacts/mvdfrm/UnityEngine.DirectorModule.dll_FBCEABDF3857BCDE.mvfrm
Library/Bee/artifacts/mvdfrm/UnityEngine.GIModule.dll_3315904950489304.mvfrm
Library/Bee/artifacts/mvdfrm/UnityEngine.GameCenterModule.dll_F5438D3A2DB4D699.mvfrm
Library/Bee/artifacts/mvdfrm/UnityEngine.GridModule.dll_02B4FD4511A2EC78.mvfrm
Library/Bee/artifacts/mvdfrm/UnityEngine.HotReloadModule.dll_D13B37B7427696B8.mvfrm
Library/Bee/artifacts/mvdfrm/UnityEngine.IMGUIModule.dll_4251904F5BA3B289.mvfrm
Library/Bee/artifacts/mvdfrm/UnityEngine.ImageConversionModule.dll_0BE81839B82521C3.mvfrm
Library/Bee/artifacts/mvdfrm/UnityEngine.InputLegacyModule.dll_7AE4CA4949706B15.mvfrm
Library/Bee/artifacts/mvdfrm/UnityEngine.InputModule.dll_7067B8990BAA434C.mvfrm
Library/Bee/artifacts/mvdfrm/UnityEngine.JSONSerializeModule.dll_92388E6F2674A11A.mvfrm
Library/Bee/artifacts/mvdfrm/UnityEngine.LocalizationModule.dll_417B454F7AA10ACB.mvfrm
Library/Bee/artifacts/mvdfrm/UnityEngine.ParticleSystemModule.dll_4E30A5A6E02F1047.mvfrm
Library/Bee/artifacts/mvdfrm/UnityEngine.PerformanceReportingModule.dll_56CD391592EAAC40.mvfrm
Library/Bee/artifacts/mvdfrm/UnityEngine.Physics2DModule.dll_9C9869A2084072CB.mvfrm
Library/Bee/artifacts/mvdfrm/UnityEngine.PhysicsModule.dll_9EE9C62B7541AE79.mvfrm
Library/Bee/artifacts/mvdfrm/UnityEngine.ProfilerModule.dll_2E14E515D1B143EB.mvfrm
Library/Bee/artifacts/mvdfrm/UnityEngine.RuntimeInitializeOnLoadManagerInitializerModule.dll_AEE78C3174DFF994.mvfrm
Library/Bee/artifacts/mvdfrm/UnityEngine.ScreenCaptureModule.dll_AC203BF43AE0CD7C.mvfrm
Library/Bee/artifacts/mvdfrm/UnityEngine.SharedInternalsModule.dll_8FF9570F2F531D13.mvfrm
Library/Bee/artifacts/mvdfrm/UnityEngine.SpriteMaskModule.dll_DE6FFFCA4F246C13.mvfrm
Library/Bee/artifacts/mvdfrm/UnityEngine.SpriteShapeModule.dll_0300DC856720ED2E.mvfrm
Library/Bee/artifacts/mvdfrm/UnityEngine.StreamingModule.dll_04876701B6CB3274.mvfrm
Library/Bee/artifacts/mvdfrm/UnityEngine.SubstanceModule.dll_E1327B4B021E3082.mvfrm
Library/Bee/artifacts/mvdfrm/UnityEngine.SubsystemsModule.dll_491D662C1D6C5426.mvfrm
Library/Bee/artifacts/mvdfrm/UnityEngine.TLSModule.dll_790354C89EDA390D.mvfrm
Library/Bee/artifacts/mvdfrm/UnityEngine.TerrainModule.dll_B930419A4AFFF767.mvfrm
Library/Bee/artifacts/mvdfrm/UnityEngine.TerrainPhysicsModule.dll_4EAB4E79F9720AD4.mvfrm
Library/Bee/artifacts/mvdfrm/UnityEngine.TextCoreFontEngineModule.dll_8137B777644E02DF.mvfrm
Library/Bee/artifacts/mvdfrm/UnityEngine.TextCoreTextEngineModule.dll_C91FEDE8F3D1BBFD.mvfrm
Library/Bee/artifacts/mvdfrm/UnityEngine.TextRenderingModule.dll_D55FADFEF2184D71.mvfrm
Library/Bee/artifacts/mvdfrm/UnityEngine.TilemapModule.dll_582CA91B62BCD870.mvfrm
Library/Bee/artifacts/mvdfrm/UnityEngine.UIElementsModule.dll_4D5BC7942098901D.mvfrm
Library/Bee/artifacts/mvdfrm/UnityEngine.UIElementsNativeModule.dll_788BFCF145221954.mvfrm
Library/Bee/artifacts/mvdfrm/UnityEngine.UIModule.dll_964CE56910E0B096.mvfrm
Library/Bee/artifacts/mvdfrm/UnityEngine.UNETModule.dll_B7EA2940465D4BFA.mvfrm
Library/Bee/artifacts/mvdfrm/UnityEngine.UmbraModule.dll_84C69D012298CA1B.mvfrm
Library/Bee/artifacts/mvdfrm/UnityEngine.UnityAnalyticsModule.dll_6DD016708C566243.mvfrm
Library/Bee/artifacts/mvdfrm/UnityEngine.UnityConnectModule.dll_70F189F62C2545B7.mvfrm
Library/Bee/artifacts/mvdfrm/UnityEngine.UnityCurlModule.dll_830F1AE2D7576D23.mvfrm
Library/Bee/artifacts/mvdfrm/UnityEngine.UnityTestProtocolModule.dll_6743335B0DC71311.mvfrm
Library/Bee/artifacts/mvdfrm/UnityEngine.UnityWebRequestAssetBundleModule.dll_E2FF9AAA86E9FF54.mvfrm
Library/Bee/artifacts/mvdfrm/UnityEngine.UnityWebRequestAudioModule.dll_CEC98CF4195576D8.mvfrm
Library/Bee/artifacts/mvdfrm/UnityEngine.UnityWebRequestModule.dll_1D871FE3C319BC42.mvfrm
Library/Bee/artifacts/mvdfrm/UnityEngine.UnityWebRequestTextureModule.dll_A03F8EAB9E61D7AD.mvfrm
Library/Bee/artifacts/mvdfrm/UnityEngine.UnityWebRequestWWWModule.dll_93E23344E3917869.mvfrm
Library/Bee/artifacts/mvdfrm/UnityEngine.VFXModule.dll_F9E1ED377547A27A.mvfrm
Library/Bee/artifacts/mvdfrm/UnityEngine.VRModule.dll_E91F0BEEB29B360E.mvfrm
Library/Bee/artifacts/mvdfrm/UnityEngine.VehiclesModule.dll_7391A55EB2818C79.mvfrm
Library/Bee/artifacts/mvdfrm/UnityEngine.VideoModule.dll_2EFB755358043A4D.mvfrm
Library/Bee/artifacts/mvdfrm/UnityEngine.VirtualTexturingModule.dll_9D18B1601DD099DF.mvfrm
Library/Bee/artifacts/mvdfrm/UnityEngine.WindModule.dll_9B92BC7F8A84D4EA.mvfrm
Library/Bee/artifacts/mvdfrm/UnityEngine.XRModule.dll_1BDDCEF33BD5836C.mvfrm
Library/Bee/artifacts/mvdfrm/UnityEngine.dll_DDA0BC58AA952B44.mvfrm
Library/Bee/artifacts/mvdfrm/Unity.Android.Gradle.dll_18EF43BF3A88E03E.mvfrm
Library/Bee/artifacts/mvdfrm/Unity.Android.Types.dll_145A87A6A15418DE.mvfrm
Library/Bee/artifacts/mvdfrm/UnityEditor.Android.Extensions.dll_CAB3813B9A0E1F3E.mvfrm
Library/Bee/artifacts/mvdfrm/UnityEditor.LinuxStandalone.Extensions.dll_FD8D4784C398B05A.mvfrm
Library/Bee/artifacts/mvdfrm/Unity.Plastic.Antlr3.Runtime.dll_4EBC8062058E84FC.mvfrm
Library/Bee/artifacts/mvdfrm/Unity.Plastic.Newtonsoft.Json.dll_30F1AEE93428BA79.mvfrm
Library/Bee/artifacts/mvdfrm/Unity.VisualScripting.IonicZip.dll_57BF7693B8562DBA.mvfrm
Library/Bee/artifacts/mvdfrm/Unity.VisualScripting.YamlDotNet.dll_43BD6BF2169252E2.mvfrm
Library/Bee/artifacts/mvdfrm/Unity.VisualScripting.TextureAssets.dll_DADB9545D75FB0DA.mvfrm
Library/Bee/artifacts/mvdfrm/Unity.VisualScripting.Antlr3.Runtime.dll_F52A92D3475B6301.mvfrm